
BALANCE GROUPS
--------------
2017-01-03Z
-----------
                 0.00    9.00  a
                 4.40    4.40  a:b
                 4.60    4.60  a:c
                 0.00   -9.00  e
                -9.00   -9.00  e:e0103
=====================
                 0.00
