
REGISTER
--------
2017-01-03Z 'Equity: last txn (uuid): a92caa4b-7d94-4b29-a418-2715a7b1cfff
            Equity:Balance                              -332.00            -332.00
            a:b                                           27.40              27.40
            a:b:c                                        300.00             300.00
            a:c                                            4.60               4.60
----------------------------------------------------------------------------------
