
REGISTER
--------
2017-01-01Z '01
            a:b                                            1.00               1.00
            e:e0101                                       -1.00              -1.00
----------------------------------------------------------------------------------
2017-01-01Z '01
            a:b                                           20.00              21.00
----------------------------------------------------------------------------------
2017-01-01Z '01
            a:b:c                                        300.00             300.00
            e:e0101                                     -300.00            -301.00
----------------------------------------------------------------------------------
2017-01-02Z 'check that report filtering doesn't affect accumulator
            a:by:not                                       0.01               0.01
----------------------------------------------------------------------------------
