
BALANCE GROUPS
--------------
2017-01-01Z
-----------
                21.00    321.00  a:b
               300.00    300.00  a:b:c
              -301.00   -301.00  e:e0101
=====================
                20.00
2017-01-02Z
-----------
                 0.00    0.01  a:by
                 0.01    0.01  a:by:not
=====================
                 0.01
