
REGISTER
--------
2019-01-19Z 'max scale
            a                                     -1.1234567890      -1.1234567890
            e                                      1.1234567890       1.1234567890
----------------------------------------------------------------------------------
2019-01-19Z 'min scale
            a                                          -1.00000      -2.1234567890
            e                                           1.00000       2.1234567890
----------------------------------------------------------------------------------
