{
  "title" : "BALANCE GROUPS",
  "groups" : [
    {
      "title" : "2019-01Z",
      "balances" : [
        {
          "accountSum" : "-1.0000",
          "accountTreeSum" : "-1.0000",
          "account" : "a"
        },
        {
          "accountSum" : "1.0000",
          "accountTreeSum" : "1.0000",
          "account" : "e"
        }
      ],
      "deltas" : [
        {
          "delta" : "0.0000"
        }
      ]
    }
  ]
}
