
REGISTER
--------
2017-01-03Z 
            Expenses:crème·glacée                          1.00               1.00
            Expenses:ice_cream                             1.00               1.00
            Expenses:jäätelö                               1.00               1.00
            Expenses:jäätelö:mansikka-vadelma              1.00               1.00
            Expenses:мороженое                             1.00               1.00
            Expenses:アイスクリーム                               1.00               1.00
            Expenses:風:空                                   1.00               1.00
            assets:cash                                   -7.00              -7.00
----------------------------------------------------------------------------------
2017-01-04Z 
            空                                             -1.00              -1.00
            風:空                                            1.00               1.00
----------------------------------------------------------------------------------
