
BALANCE GROUPS
--------------
2009-W01Z
---------
         -40180202.11   -40180202.11  a:b
          40180202.11    40180202.11  e:b
=====================
                 0.00
2009-W07Z
---------
         -20090214.00   -20090214.00  a:b
          20090214.00    20090214.00  e:b
=====================
                 0.00
2009-W53Z
---------
         -60291435.00   -60291435.00  a:b
          60291435.00    60291435.00  e:b
=====================
                 0.00
2010-W01Z
---------
         -20100104.00   -20100104.00  a:b
          20100104.00    20100104.00  e:b
=====================
                 0.00
