
BALANCE GROUPS
--------------
2009-01Z
--------
         -40180202.11   -40180202.11  a:b
          40180202.11    40180202.11  e:b
=====================
                 0.00
2009-02Z
--------
         -20090214.00   -20090214.00  a:b
          20090214.00    20090214.00  e:b
=====================
                 0.00
2009-12Z
--------
         -20091231.00   -20091231.00  a:b
          20091231.00    20091231.00  e:b
=====================
                 0.00
2010-01Z
--------
         -60300308.00   -60300308.00  a:b
          60300308.00    60300308.00  e:b
=====================
                 0.00
