
BALANCE GROUPS
--------------
2019-04Z
--------
                -1.20         -1.20 $    a
               100.00        100.00 EUR  e
              -120.00       -120.00 USD  a
                 1.00          1.00 €    e
=========================
                -1.20 $
               100.00 EUR
              -120.00 USD
                 1.00 €
