Git storage:
  commit:  3ebf14112c0ba2b4263a4b7388c589b10db27b1e
  ref:     FIXED by commit
  dir:     git-txns
  suffix:  .txn
  message: test: commit-id-01, step 3

Filter:
  Txn Description: "shard01"


BALANCE GROUPS
--------------
2017-02Z
--------
                10.00    10.00  a
               -10.00   -10.00  e
=====================
                 0.00
