Txn set checksum:
  SHA-256: 0b9f89dbdc0da621de136dc7856df22caecdf6041e44aff0d58493c6fd3166b6
  Set size: 3

Git storage:
  commit:  15fc7e053906ed3714037b0af0a81bb486fb4884
  ref:     txns-1E2
  dir:     txns
  suffix:  .txn
  message: txns-1E2: 2016/12

Filter:
  Txn Description: "1E2 txn-(1|17|100)"

Account selector checksum:
  SHA-256: 64263feac7b00952e9ec3b6c1fd11316faa58ff673c6bd085fac9f6f8d8389f6


BALANCE GROUPS
--------------
2016-01Z
--------
                 0.00   -4.0000001  a
                 0.00   -4.0000001  a:ay2016
           -4.0000001   -4.0000001  a:ay2016:am01
                 0.00    4.0000001  e
                 0.00    4.0000001  e:ey2016
                 0.00    4.0000001  e:ey2016:em01
            4.0000001    4.0000001  e:ey2016:em01:ed04
=====================
            0.0000000
2016-03Z
--------
                 0.00   -3.0000001  a
                 0.00   -3.0000001  a:ay2016
           -3.0000001   -3.0000001  a:ay2016:am03
                 0.00    3.0000001  e
                 0.00    3.0000001  e:ey2016
                 0.00    3.0000001  e:ey2016:em03
            3.0000001    3.0000001  e:ey2016:em03:ed03
=====================
            0.0000000
2016-12Z
--------
                 0.00   -31.0000001  a
                 0.00   -31.0000001  a:ay2016
          -31.0000001   -31.0000001  a:ay2016:am12
                 0.00    31.0000001  e
                 0.00    31.0000001  e:ey2016
                 0.00    31.0000001  e:ey2016:em12
           31.0000001    31.0000001  e:ey2016:em12:ed31
=====================
            0.0000000
