Txn set checksum:
  SHA-256: 9b29071e1bf228cfbd31ca2b8e7263212e4b86e51cfee1e8002c9b795ab03f76
  Set size: 10

Git storage:
  commit:  4aa4e9797501c1aefc92f32dff30ab462dae5545
  ref:     txns-1E1
  dir:     txns
  suffix:  .txn
  message: txns-1E1: 2016/12

Account selector checksum:
  SHA-256: d1227257ad0ae6872b23d8ba48934f6bf54766afd8e7daf6e35a919bbb01867b


BALANCE GROUPS
--------------
2016-07Z
--------
           -1.0000001   -1.0000001  a:ay2016:am07
            1.0000001    1.0000001  e:ey2016:em07:ed01
=====================
            0.0000000
