Txn set checksum:
  SHA-256: 79519f4ba982a7accfe0ed64545e60d3fa4adb883125d04ff0a8bb65343ac982
  Set size: 1

Git storage:
  commit:  15fc7e053906ed3714037b0af0a81bb486fb4884
  ref:     txns-1E2
  dir:     txns/2016/01/11
  suffix:  .txn
  message: txns-1E2: 2016/12

Account selector checksum:
  SHA-256: 64263feac7b00952e9ec3b6c1fd11316faa58ff673c6bd085fac9f6f8d8389f6


BALANCE GROUPS
--------------
2016-01Z
--------
                 0.00   -11.0000001  a
                 0.00   -11.0000001  a:ay2016
          -11.0000001   -11.0000001  a:ay2016:am01
                 0.00    11.0000001  e
                 0.00    11.0000001  e:ey2016
                 0.00    11.0000001  e:ey2016:em01
           11.0000001    11.0000001  e:ey2016:em01:ed11
=====================
            0.0000000
