Txn set checksum:
  SHA-384: cbbef473e8ffb266c5674ce25fabd6ab73bcb61c74a347c2dedcc74061d5ed624f04ff3075e76cfdf34ef0abe99c61ee
  Set size: 3

Git storage:
  commit:  15fc7e053906ed3714037b0af0a81bb486fb4884
  ref:     txns-1E2
  dir:     txns
  suffix:  .txn
  message: txns-1E2: 2016/12

Filter:
  Txn Description: "1E2 txn-(1|17|100)"

Account selector checksum:
  SHA-384: 457467dc93df0e4209ea67ca5a878c2f8ad78de19b67bab8bae402dbaf2c625d090a9d8375f5e2d794d557a59f7ec4e3


BALANCE GROUPS
--------------
2016-01Z
--------
                 0.00   -4.0000001  a
                 0.00   -4.0000001  a:ay2016
           -4.0000001   -4.0000001  a:ay2016:am01
                 0.00    4.0000001  e
                 0.00    4.0000001  e:ey2016
                 0.00    4.0000001  e:ey2016:em01
            4.0000001    4.0000001  e:ey2016:em01:ed04
=====================
            0.0000000
2016-03Z
--------
                 0.00   -3.0000001  a
                 0.00   -3.0000001  a:ay2016
           -3.0000001   -3.0000001  a:ay2016:am03
                 0.00    3.0000001  e
                 0.00    3.0000001  e:ey2016
                 0.00    3.0000001  e:ey2016:em03
            3.0000001    3.0000001  e:ey2016:em03:ed03
=====================
            0.0000000
2016-12Z
--------
                 0.00   -31.0000001  a
                 0.00   -31.0000001  a:ay2016
          -31.0000001   -31.0000001  a:ay2016:am12
                 0.00    31.0000001  e
                 0.00    31.0000001  e:ey2016
                 0.00    31.0000001  e:ey2016:em12
           31.0000001    31.0000001  e:ey2016:em12:ed31
=====================
            0.0000000
