Txn set checksum:
  SHA-384: cbbef473e8ffb266c5674ce25fabd6ab73bcb61c74a347c2dedcc74061d5ed624f04ff3075e76cfdf34ef0abe99c61ee
  Set size: 3

Git storage:
  commit:  15fc7e053906ed3714037b0af0a81bb486fb4884
  ref:     txns-1E2
  dir:     txns
  suffix:  .txn
  message: txns-1E2: 2016/12

Filter:
  Txn Description: "1E2 txn-(1|17|100)"

Account selector checksum:
  SHA-384: 457467dc93df0e4209ea67ca5a878c2f8ad78de19b67bab8bae402dbaf2c625d090a9d8375f5e2d794d557a59f7ec4e3


REGISTER
--------
2016-01-04Z (#0000001) '1E2 txn-1
            # uuid: 6c96da37-4318-330b-89b3-2ff00140b54e
            a:ay2016:am01                            -4.0000001         -4.0000001
            e:ey2016:em01:ed04                        4.0000001          4.0000001
----------------------------------------------------------------------------------
2016-03-03Z (#0000017) '1E2 txn-17
            # uuid: 950c94cb-74e2-3f8c-ba0e-60d384cd1e99
            a:ay2016:am03                            -3.0000001         -3.0000001
            e:ey2016:em03:ed03                        3.0000001          3.0000001
----------------------------------------------------------------------------------
2016-12-31Z (#0000100) '1E2 txn-100
            # uuid: 28827cf2-2cb7-3524-b437-2faf26febda8
            a:ay2016:am12                           -31.0000001        -31.0000001
            e:ey2016:em12:ed31                       31.0000001         31.0000001
----------------------------------------------------------------------------------
